2021-04-20 19:47:46:359 [Appium] Welcome to Appium v1.20.2
2021-04-20 19:47:46:361 [Appium] Non-default server args:
2021-04-20 19:47:46:361 [Appium]   port: 28546
2021-04-20 19:47:46:361 [Appium]   logFile: C:\Users\alexd\Desktop\Automation\repos\convergence\logs\20210420\144744-AppiumServerLogs.txt
2021-04-20 19:47:46:362 [Appium]   defaultCapabilities: {
2021-04-20 19:47:46:362 [Appium]     VERSION: 10.0
2021-04-20 19:47:46:362 [Appium]     browserName: Chrome
2021-04-20 19:47:46:362 [Appium]     deviceName: Android SDK built for x86
2021-04-20 19:47:46:363 [Appium]     platformName: android
2021-04-20 19:47:46:363 [Appium]     udid: emulator-5554
2021-04-20 19:47:46:363 [Appium]   }
2021-04-20 19:47:46:364 [Appium] Default capabilities, which will be added to each request unless overridden by desired capabilities:
2021-04-20 19:47:46:364 [Appium]   VERSION: 10.0
2021-04-20 19:47:46:364 [Appium]   browserName: Chrome
2021-04-20 19:47:46:364 [Appium]   deviceName: Android SDK built for x86
2021-04-20 19:47:46:365 [Appium]   platformName: android
2021-04-20 19:47:46:365 [Appium]   udid: emulator-5554
2021-04-20 19:47:46:404 [Appium] Appium REST http interface listener started on 0.0.0.0:28546
2021-04-20 19:47:46:881 [HTTP] --> GET /wd/hub/status
2021-04-20 19:47:46:882 [HTTP] {}
2021-04-20 19:47:46:883 [GENERIC] Calling AppiumDriver.getStatus() with args: []
2021-04-20 19:47:46:884 [GENERIC] Responding to client with driver.getStatus() result: {"build":{"version":"1.20.2"}}
2021-04-20 19:47:46:889 [HTTP] <-- GET /wd/hub/status 200 6 ms - 68
2021-04-20 19:47:46:890 [HTTP] 
