2021-04-23 15:29:10:742 [Appium] Welcome to Appium v1.20.2
2021-04-23 15:29:10:745 [Appium] Non-default server args:
2021-04-23 15:29:10:746 [Appium]   port: 38330
2021-04-23 15:29:10:746 [Appium]   logFile: C:\Users\alexd\Desktop\Automation\repos\convergence\logs\20210423\102907-AppiumServerLogs.txt
2021-04-23 15:29:10:747 [Appium]   defaultCapabilities: {
2021-04-23 15:29:10:747 [Appium]     VERSION: 10.0
2021-04-23 15:29:10:748 [Appium]     browserName: Chrome
2021-04-23 15:29:10:748 [Appium]     deviceName: Android SDK built for x86
2021-04-23 15:29:10:749 [Appium]     platformName: android
2021-04-23 15:29:10:749 [Appium]     udid: emulator-5554
2021-04-23 15:29:10:749 [Appium]   }
2021-04-23 15:29:10:750 [Appium] Default capabilities, which will be added to each request unless overridden by desired capabilities:
2021-04-23 15:29:10:750 [Appium]   VERSION: 10.0
2021-04-23 15:29:10:751 [Appium]   browserName: Chrome
2021-04-23 15:29:10:751 [Appium]   deviceName: Android SDK built for x86
2021-04-23 15:29:10:751 [Appium]   platformName: android
2021-04-23 15:29:10:751 [Appium]   udid: emulator-5554
2021-04-23 15:29:10:798 [Appium] Appium REST http interface listener started on 0.0.0.0:38330
2021-04-23 15:29:10:897 [HTTP] --> GET /wd/hub/status
2021-04-23 15:29:10:897 [HTTP] {}
2021-04-23 15:29:10:900 [GENERIC] Calling AppiumDriver.getStatus() with args: []
2021-04-23 15:29:10:901 [GENERIC] Responding to client with driver.getStatus() result: {"build":{"version":"1.20.2"}}
2021-04-23 15:29:10:908 [HTTP] <-- GET /wd/hub/status 200 9 ms - 68
2021-04-23 15:29:10:909 [HTTP] 
