2021-04-27 16:20:29:157 [Appium] Welcome to Appium v1.20.2
2021-04-27 16:20:29:158 [Appium] Non-default server args:
2021-04-27 16:20:29:159 [Appium]   port: 27880
2021-04-27 16:20:29:160 [Appium]   logFile: C:\Users\alexd\Desktop\Automation\repos\convergence\logs\20210427\112024-AppiumServerLogs.txt
2021-04-27 16:20:29:161 [Appium]   defaultCapabilities: {
2021-04-27 16:20:29:161 [Appium]     VERSION: 10.0
2021-04-27 16:20:29:162 [Appium]     browserName: Chrome
2021-04-27 16:20:29:162 [Appium]     deviceName: Android SDK built for x86
2021-04-27 16:20:29:163 [Appium]     platformName: android
2021-04-27 16:20:29:163 [Appium]     udid: emulator-5554
2021-04-27 16:20:29:164 [Appium]   }
2021-04-27 16:20:29:165 [Appium] Default capabilities, which will be added to each request unless overridden by desired capabilities:
2021-04-27 16:20:29:166 [Appium]   VERSION: 10.0
2021-04-27 16:20:29:166 [Appium]   browserName: Chrome
2021-04-27 16:20:29:166 [Appium]   deviceName: Android SDK built for x86
2021-04-27 16:20:29:167 [Appium]   platformName: android
2021-04-27 16:20:29:167 [Appium]   udid: emulator-5554
2021-04-27 16:20:29:241 [Appium] Appium REST http interface listener started on 0.0.0.0:27880
2021-04-27 16:20:29:383 [HTTP] --> GET /wd/hub/status
2021-04-27 16:20:29:383 [HTTP] {}
2021-04-27 16:20:29:386 [GENERIC] Calling AppiumDriver.getStatus() with args: []
2021-04-27 16:20:29:388 [GENERIC] Responding to client with driver.getStatus() result: {"build":{"version":"1.20.2"}}
2021-04-27 16:20:29:399 [HTTP] <-- GET /wd/hub/status 200 12 ms - 68
2021-04-27 16:20:29:400 [HTTP] 
